Oct 12 12:56:02 220.233.20.99 FXO: Start CNDD
Oct 12 12:56:03 220.233.20.99 Calling: @127.0.0.1:5060
Oct 12 12:56:03 220.233.20.99 [1: 0]AUD ALLOC CALL (port=16414)
Oct 12 12:56:03 220.233.20.99 [1: 0]RTP Rx Up
Oct 12 12:56:03 220.233.20.99 [1]->127.0.0.1: 5060(824)
Oct 12 12:56:03 220.233.20.99 [1]->127.0.0.1: 5060(824)
Oct 12 12:56:03 220.233.20.99  
Oct 12 12:56:03 INVITE sip: 127.0.0.1:5060 SIP/2.0#015#012Via: SIP/2.0/UDP 192.168.1.12:5061;branch=z9hG4bK-b35ca89a#015#012From: <sip:192.168.1.12>;tag=6709a639c7c56442o1#015#012To: <sip:127.0.0.1>#015#012Remote-Party-ID: <sip:192.168.1.12>;screen=yes;party=calling#015#012Alert-Info: Bellcore-r1#015#012Call-ID: ae6ffac5-74a3926@192.168.1.12#015#012CSeq: 101 INVITE#015#012Max-Forwards: 70#015#012Contact: <sip:192.168.1.12:5061>#015#012Expires: 240#015#012User-Agent: Linksys/SPA3102-5.2.13(GW002)#015#012Content-Length: 257#015#012Allow: ACK, BYE, CANCEL, INFO, INVITE, NOTIFY, OPTIONS, REFER#015#012Supported: x-sipura, replaces#015#012Content-Type: application/sdp#015#012#015#012v=0#015#012o=- 33082024 33082024 IN IP4 192.168.1.12#015#012s=-#015#012c=IN IP4 192.168.1.12#015#012t=0 0#015#012m=audio 16414 RTP/AVP 0 100 101#015#012a=rtpmap:0 PCMU/8000#015#012a=rtpmap:100 NSE/8000#015#012a=fmtp:100 192-193#015#012a=rtpmap:101 telephone-event/8000#015#012a=fmtp:101 0-15#015#012a=ptime:30#015#012a=sendrecv#015
Oct 12 12:56:03 220.233.20.99  
Oct 12 12:56:03 SDP RTPMAP 100 --> 134
Oct 12 12:56:03 SDP RTPMAP 101 --> 136
Oct 12 12:56:03 220.233.20.99 [1]<<127.0.0.1: 5060(268)
Oct 12 12:56:03 220.233.20.99 [1]<<127.0.0.1: 5060(268)
Oct 12 12:56:03 220.233.20.99 SIP/2.0 100 Trying#015#012To: <sip:127.0.0.1>#015#012From: <sip:192.168.1.12>;tag=6709a639c7c56442o1#015#012Call-ID: ae6ffac5-74a3926@192.168.1.12#015#012CSeq: 101 INVITE#015#012Via: SIP/2.0/UDP 192.168.1.12:5061;branch=z9hG4bK-b35ca89a#015#012Server: Linksys/SPA3102-5.2.13(GW002)#015#012Content-Length: 0#015#012#015
Oct 12 12:56:03 220.233.20.99  
Oct 12 12:56:03 220.233.20.99  
Oct 12 12:56:03 SDP RTPMAP 100 --> 134
Oct 12 12:56:03 SDP RTPMAP 101 --> 136
Oct 12 12:56:03 220.233.20.99 [0: 0]AUD ALLOC CALL (port=16416)
Oct 12 12:56:03 220.233.20.99 [0: 0]RTP Rx Up
Oct 12 12:56:03 220.233.20.99 [1]<<127.0.0.1: 5060(387)
Oct 12 12:56:03 220.233.20.99 [1]<<127.0.0.1: 5060(387)
Oct 12 12:56:03 220.233.20.99 SIP/2.0 180 Ringing#015#012To: <sip:127.0.0.1>;tag=6ac2dd57bb2167bei0#015#012From: <sip:192.168.1.12>;tag=6709a639c7c56442o1#015#012Call-ID: ae6ffac5-74a3926@192.168.1.12#015#012CSeq: 101 INVITE#015#012Via: SIP/2.0/UDP 192.168.1.12:5061;branch=z9hG4bK-b35ca89a#015#012Contact: <sip:192.168.1.12:5060>#015#012Server: Linksys/SPA3102-5.2.13(GW002)#015#012Remote-Party-ID: <sip:192.168.1.12>;screen=yes;party=called#015#012Content-Length: 0#015#012#015
Oct 12 12:56:03 220.233.20.99  
Oct 12 12:56:03 220.233.20.99  
Oct 12 12:56:03 220.233.20.99 CC: Ringback
Oct 12 12:56:03 220.233.20.99 [1: 0]RTP Rx Dn
Oct 12 12:56:03 220.233.20.99 AUD: Play PSTN Tone 9
Oct 12 12:56:04 caller id parse number=0401210172
Oct 12 12:56:04 fxo cnddwrap_feed parse ok 0401210172  status=2
Oct 12 12:56:04 220.233.20.99 -- Caller ID:#012--     Name             = (null)#012--     Remote Number    = 0401210172#012--     Dialable Number  = (null)#012--     No Number Reason = (null)#012--     No Name Reason   = (null)#012--     Message Waiting  = (null)#012--     Date and Time    = 10/12 23:56
Oct 12 12:56:04 220.233.20.99 FXO: CNDD name=, number=0401210172
Oct 12 12:56:04 220.233.20.99 FXO: Stop CNDD
Oct 12 12:56:04 220.233.20.99 FXO: CNDD Name= Phone=0401210172
Oct 12 12:56:26 220.233.20.99 AUD: Stop PSTN Tone
Oct 12 12:56:26 220.233.20.99 FXO: On Hook
Oct 12 12:56:26 220.233.20.99 AUD: Stop PSTN Tone
Oct 12 12:56:26 220.233.20.99 [0]FM Alert Stop RxTx (c=0025422c;a=0)
Oct 12 12:56:26 220.233.20.99 [1: 0]AUD Rel Call
Oct 12 12:56:26 220.233.20.99 [1]->127.0.0.1: 5060(305)
Oct 12 12:56:26 220.233.20.99 [1]->127.0.0.1: 5060(305)
Oct 12 12:56:26 CANCEL sip: 127.0.0.1:5060 SIP/2.0#015#012Via: SIP/2.0/UDP 192.168.1.12:5061;branch=z9hG4bK-b35ca89a#015#012From: <sip:192.168.1.12>;tag=6709a639c7c56442o1#015#012To: <sip:127.0.0.1>#015#012Call-ID: ae6ffac5-74a3926@192.168.1.12#015#012CSeq: 101 CANCEL#015#012Max-Forwards: 70#015#012User-Agent: Linksys/SPA3102-5.2.13(GW002)#015#012Content-Length: 0#015#012#015
Oct 12 12:56:26 220.233.20.99  
Oct 12 12:56:26 220.233.20.99  
Oct 12 12:56:26 220.233.20.99 [0]FM Alert Stop RxTx (c=0024e22c;a=0)
Oct 12 12:56:26 220.233.20.99 [0: 0]AUD Rel Call
Oct 12 12:56:26 220.233.20.99 CC: Ended
Oct 12 12:56:26 220.233.20.99 [1]<<127.0.0.1: 5060(303)
Oct 12 12:56:26 220.233.20.99 [1]<<127.0.0.1: 5060(303)
Oct 12 12:56:26 220.233.20.99 SIP/2.0 487 Request Terminated#015#012To: <sip:127.0.0.1>;tag=6ac2dd57bb2167bei0#015#012From: <sip:192.168.1.12>;tag=6709a639c7c56442o1#015#012Call-ID: ae6ffac5-74a3926@192.168.1.12#015#012CSeq: 101 INVITE#015#012Via: SIP/2.0/UDP 192.168.1.12:5061;branch=z9hG4bK-b35ca89a#015#012Server: Linksys/SPA3102-5.2.13(GW002)#015#012Content-Length: 0#015#012#015
Oct 12 12:56:26 220.233.20.99  
Oct 12 12:56:26 220.233.20.99  
Oct 12 12:56:26 220.233.20.99 [1]->127.0.0.1: 5060(356)
Oct 12 12:56:26 220.233.20.99 [1]->127.0.0.1: 5060(356)
Oct 12 12:56:26 ACK sip: 127.0.0.1:5060 SIP/2.0#015#012Via: SIP/2.0/UDP 192.168.1.12:5061;branch=z9hG4bK-b35ca89a#015#012From: <sip:192.168.1.12>;tag=6709a639c7c56442o1#015#012To: <sip:127.0.0.1>;tag=6ac2dd57bb2167bei0#015#012Call-ID: ae6ffac5-74a3926@192.168.1.12#015#012CSeq: 101 ACK#015#012Max-Forwards: 70#015#012Contact: <sip:192.168.1.12:5061>#015#012User-Agent: Linksys/SPA3102-5.2.13(GW002)#015#012Content-Length: 0#015#012#015
Oct 12 12:56:26 220.233.20.99  
Oct 12 12:56:26 220.233.20.99  
Oct 12 12:56:26 220.233.20.99 [1]<<127.0.0.1: 5060(287)
Oct 12 12:56:26 220.233.20.99 [1]<<127.0.0.1: 5060(287)
Oct 12 12:56:26 220.233.20.99 SIP/2.0 200 OK#015#012To: <sip:127.0.0.1>;tag=6ac2dd57bb2167bei0#015#012From: <sip:192.168.1.12>;tag=6709a639c7c56442o1#015#012Call-ID: ae6ffac5-74a3926@192.168.1.12#015#012CSeq: 101 CANCEL#015#012Via: SIP/2.0/UDP 192.168.1.12:5061;branch=z9hG4bK-b35ca89a#015#012Server: Linksys/SPA3102-5.2.13(GW002)#015#012Content-Length: 0#015#012#015
Oct 12 12:56:26 220.233.20.99  
Oct 12 12:56:26 220.233.20.99  
Oct 12 12:56:26 DLG Terminated 2974b8
Oct 12 12:56:26 DLG Terminated 297424
Oct 12 12:56:26 Sess Terminated 
Oct 12 12:56:26 Sess Terminated 
Oct 12 12:56:59 220.233.20.99 CC: Clean Up
Oct 12 12:56:59 220.233.20.99 --- OBJ POOL STAT ---
Oct 12 12:56:59 220.233.20.99 OP: RTPRXB =  96 ( 96  192)   
Oct 12 12:56:59 220.233.20.99 OP: RTPREB =  40 ( 40   48)
Oct 12 12:56:59 220.233.20.99 OP: RTPTXB =  64 ( 64  108)   
Oct 12 12:56:59 220.233.20.99 OP: TIMEOU = 112 (120   52)
Oct 12 12:56:59 220.233.20.99 OP: SIPCOR =   0 (  1   28)   
Oct 12 12:56:59 220.233.20.99 OP: SIPCTS =  32 ( 32  580)
Oct 12 12:56:59 220.233.20.99 OP: SIPSTS =  32 ( 32 6064)   
Oct 12 12:56:59 220.233.20.99 OP: SIPAUS =   8 (  8  588)
Oct 12 12:56:59 220.233.20.99 OP: SIPDLG =  10 ( 10  148)   
Oct 12 12:56:59 220.233.20.99 OP: SIPSES =  12 ( 12 8192)
Oct 12 12:56:59 220.233.20.99 OP: SIPREG =   4 (  4  468)   
Oct 12 12:56:59 220.233.20.99 OP: SIPLIN =   0 (  2  140)
Oct 12 12:56:59 220.233.20.99 OP: SUBDLG =   2 (  2 6444)   
Oct 12 12:56:59 220.233.20.99 OP: STUNTS =  16 ( 16   68)
Oct 12 12:56:59 220.233.20.99
